<svg id="Calque_1" data-name="Calque 1" xmlns="http://www.w3.org/2000/svg" viewBox="0 0 197.8 197.8">
  <circle cx="98.9" cy="98.9" r="98.9" style="fill: #ebb100"/>
  <path d="M98.9,63h0a7,7,0,0,1,7,7v57.82a7,7,0,0,1-7,7h0a7,7,0,0,1-7-7V70A7,7,0,0,1,98.9,63Z" style="fill: #fff"/>
  <path d="M134.77,98.9h0a7,7,0,0,1-7,7H70a7,7,0,0,1-7-7h0a7,7,0,0,1,7-7h57.82A7,7,0,0,1,134.77,98.9Z" style="fill: #fff"/>
</svg>
